…
What’s the effect of missing data on a statistical analysis? The
`sim_missing()` function replaces a proportion of values with NA. Let’s
see how it affects a PERMANOVA.

We can chain several `sim_*` functions to quickly create a dataframe.

``` r
df2 <- 
  sim_cat(N = 25, n_groups = 3, name = "factor") %>% 
  sim_covar(p = 3, var = 1, cov = 0.0, name = "noise") %>% 
  group_by(factor) %>% 
  sim_discr(p = 3, var = 1, cov = 0, group_means = c(-1.5, 0, 1.5), name  = "signal")
df2
#> # A tibble: 25 x 7
#> # Groups:   factor [3]
#>    factor noise_1 noise_2 noise_3 signal_1 signal_2 signal_3
#>    <chr>    <dbl>   <dbl>   <dbl>    <dbl>    <dbl>    <dbl>
#>  1 a      -1.03    0.444    0.978   -3.13    -1.77    -1.77 
#>  2 a       0.647  -0.354   -0.963   -1.14    -1.62    -2.38 
#>  3 a      -0.0868 -0.375   -1.93    -0.423    0.123   -0.576
#>  4 a      -1.41   -1.18    -0.773   -2.11    -0.793   -1.65 
#>  5 a       1.05    0.307   -0.692   -0.220   -0.826   -1.96 
#>  6 a       1.15    0.191   -0.193   -1.62    -2.89    -0.972
#>  7 a      -0.0616  1.60     1.84    -1.15    -2.39    -0.284
#>  8 a      -0.0326  0.882    0.549   -1.55    -2.94    -0.530
#>  9 a      -1.02    0.530    1.10    -3.67    -0.791   -1.62 
#> 10 b       0.154  -0.0768  -0.338    0.254    0.677   -0.283
#> # … with 15 more rows
```
…
